[
  {
    "id": 1,
    "first_name": "Charles",
    "last_name": "Meyer",
    "email": "cmeyer0@amazonaws.com",
    "gender": "Male",
    "profile_picture": "http:\/\/dummyimage.com\/250x250.png\/ff4444\/ffffff",
    "phone": "976-(849)345-3771"
  },
  {
    "id": 2,
    "first_name": "Nicholas",
    "last_name": "Payne",
    "email": "npayne1@hud.gov",
    "gender": "Male",
    "profile_picture": "http:\/\/dummyimage.com\/250x250.jpg\/5fa2dd\/ffffff",
    "phone": "46-(276)664-2050"
  },
  {
    "id": 3,
    "first_name": "Timothy",
    "last_name": "Schmidt",
    "email": "tschmidt2@delicious.com",
    "gender": "Male",
    "profile_picture": "http:\/\/dummyimage.com\/250x250.jpg\/cc0000\/ffffff",
    "phone": "62-(544)459-5693"
  },
  {
    "id": 4,
    "first_name": "Lillian",
    "last_name": "Lane",
    "email": "llane3@weather.com",
    "gender": "Female",
    "profile_picture": "http:\/\/dummyimage.com\/250x250.jpg\/dddddd\/000000",
    "phone": "62-(544)339-4249"
  },
  {
    "id": 5,
    "first_name": "Theresa",
    "last_name": "Elliott",
    "email": "telliott4@netvibes.com",
    "gender": "Female",
    "profile_picture": "http:\/\/dummyimage.com\/250x250.png\/ff4444\/ffffff",
    "phone": "33-(269)193-4348"
  },
  {
    "id": 6,
    "first_name": "Jose",
    "last_name": "Burns",
    "email": "jburns5@parallels.com",
    "gender": "Male",
    "profile_picture": "http:\/\/dummyimage.com\/250x250.png\/ff4444\/ffffff",
    "phone": "53-(351)829-9067"
  },
  {
    "id": 7,
    "first_name": "Jacqueline",
    "last_name": "Olson",
    "email": "jolson6@earthlink.net",
    "gender": "Female",
    "profile_picture": "http:\/\/dummyimage.com\/250x250.png\/5fa2dd\/ffffff",
    "phone": "63-(825)817-7050"
  },
  {
    "id": 8,
    "first_name": "Eric",
    "last_name": "Boyd",
    "email": "eboyd7@adobe.com",
    "gender": "Male",
    "profile_picture": "http:\/\/dummyimage.com\/250x250.png\/cc0000\/ffffff",
    "phone": "62-(299)609-3913"
  },
  {
    "id": 9,
    "first_name": "Daniel",
    "last_name": "Montgomery",
    "email": "dmontgomery8@skyrock.com",
    "gender": "Male",
    "profile_picture": "http:\/\/dummyimage.com\/250x250.jpg\/cc0000\/ffffff",
    "phone": "504-(798)486-4804"
  },
  {
    "id": 10,
    "first_name": "Jesse",
    "last_name": "Gutierrez",
    "email": "jgutierrez9@time.com",
    "gender": "Male",
    "profile_picture": "http:\/\/dummyimage.com\/250x250.png\/5fa2dd\/ffffff",
    "phone": "54-(840)394-0072"
  },
  {
    "id": 11,
    "first_name": "Bobby",
    "last_name": "Brooks",
    "email": "bbrooksa@zimbio.com",
    "gender": "Male",
    "profile_picture": "http:\/\/dummyimage.com\/250x250.png\/5fa2dd\/ffffff",
    "phone": "255-(277)194-7561"
  },
  {
    "id": 12,
    "first_name": "Lori",
    "last_name": "Jones",
    "email": "ljonesb@mapy.cz",
    "gender": "Female",
    "profile_picture": "http:\/\/dummyimage.com\/250x250.jpg\/dddddd\/000000",
    "phone": "62-(155)260-9602"
  },
  {
    "id": 13,
    "first_name": "Rachel",
    "last_name": "Cole",
    "email": "rcolec@google.co.uk",
    "gender": "Female",
    "profile_picture": "http:\/\/dummyimage.com\/250x250.jpg\/dddddd\/000000",
    "phone": "856-(970)189-1777"
  },
  {
    "id": 14,
    "first_name": "Joe",
    "last_name": "Cole",
    "email": "jcoled@ted.com",
    "gender": "Male",
    "profile_picture": "http:\/\/dummyimage.com\/250x250.bmp\/cc0000\/ffffff",
    "phone": "380-(621)497-0927"
  },
  {
    "id": 15,
    "first_name": "Lisa",
    "last_name": "Jones",
    "email": "ljonese@booking.com",
    "gender": "Female",
    "profile_picture": "http:\/\/dummyimage.com\/250x250.bmp\/5fa2dd\/ffffff",
    "phone": "47-(889)526-5351"
  },
  {
    "id": 16,
    "first_name": "Edward",
    "last_name": "Sanchez",
    "email": "esanchezf@hugedomains.com",
    "gender": "Male",
    "profile_picture": "http:\/\/dummyimage.com\/250x250.bmp\/cc0000\/ffffff",
    "phone": "66-(246)154-3811"
  },
  {
    "id": 17,
    "first_name": "Martin",
    "last_name": "Fisher",
    "email": "mfisherg@cnbc.com",
    "gender": "Male",
    "profile_picture": "http:\/\/dummyimage.com\/250x250.jpg\/5fa2dd\/ffffff",
    "phone": "86-(401)675-7637"
  },
  {
    "id": 18,
    "first_name": "Kathryn",
    "last_name": "King",
    "email": "kkingh@yolasite.com",
    "gender": "Female",
    "profile_picture": "http:\/\/dummyimage.com\/250x250.png\/dddddd\/000000",
    "phone": "33-(974)496-3937"
  },
  {
    "id": 19,
    "first_name": "Judith",
    "last_name": "Lynch",
    "email": "jlynchi@fotki.com",
    "gender": "Female",
    "profile_picture": "http:\/\/dummyimage.com\/250x250.jpg\/5fa2dd\/ffffff",
    "phone": "86-(140)293-7519"
  },
  {
    "id": 20,
    "first_name": "Jesse",
    "last_name": "Wilson",
    "email": "jwilsonj@earthlink.net",
    "gender": "Male",
    "profile_picture": "http:\/\/dummyimage.com\/250x250.jpg\/5fa2dd\/ffffff",
    "phone": "86-(655)927-8109"
  },
  {
    "id": 21,
    "first_name": "Timothy",
    "last_name": "Romero",
    "email": "tromerok@amazonaws.com",
    "gender": "Male",
    "profile_picture": "http:\/\/dummyimage.com\/250x250.png\/dddddd\/000000",
    "phone": "55-(161)241-4447"
  },
  {
    "id": 22,
    "first_name": "Benjamin",
    "last_name": "Reynolds",
    "email": "breynoldsl@cnn.com",
    "gender": "Male",
    "profile_picture": "http:\/\/dummyimage.com\/250x250.png\/dddddd\/000000",
    "phone": "48-(768)825-1898"
  },
  {
    "id": 23,
    "first_name": "John",
    "last_name": "Nichols",
    "email": "jnicholsm@sphinn.com",
    "gender": "Male",
    "profile_picture": "http:\/\/dummyimage.com\/250x250.bmp\/ff4444\/ffffff",
    "phone": "1-(206)960-1648"
  },
  {
    "id": 24,
    "first_name": "Kimberly",
    "last_name": "Ramos",
    "email": "kramosn@oracle.com",
    "gender": "Female",
    "profile_picture": "http:\/\/dummyimage.com\/250x250.bmp\/cc0000\/ffffff",
    "phone": "63-(722)273-9887"
  },
  {
    "id": 25,
    "first_name": "Cheryl",
    "last_name": "Collins",
    "email": "ccollinso@cam.ac.uk",
    "gender": "Female",
    "profile_picture": "http:\/\/dummyimage.com\/250x250.png\/cc0000\/ffffff",
    "phone": "51-(542)586-5878"
  },
  {
    "id": 26,
    "first_name": "Willie",
    "last_name": "Morris",
    "email": "wmorrisp@drupal.org",
    "gender": "Male",
    "profile_picture": "http:\/\/dummyimage.com\/250x250.png\/ff4444\/ffffff",
    "phone": "86-(561)529-8828"
  },
  {
    "id": 27,
    "first_name": "Virginia",
    "last_name": "Peters",
    "email": "vpetersq@bandcamp.com",
    "gender": "Female",
    "profile_picture": "http:\/\/dummyimage.com\/250x250.bmp\/cc0000\/ffffff",
    "phone": "48-(316)996-7266"
  },
  {
    "id": 28,
    "first_name": "Susan",
    "last_name": "Harrison",
    "email": "sharrisonr@blogger.com",
    "gender": "Female",
    "profile_picture": "http:\/\/dummyimage.com\/250x250.jpg\/dddddd\/000000",
    "phone": "62-(913)612-7538"
  },
  {
    "id": 29,
    "first_name": "Amy",
    "last_name": "Barnes",
    "email": "abarness@dot.gov",
    "gender": "Female",
    "profile_picture": "http:\/\/dummyimage.com\/250x250.bmp\/dddddd\/000000",
    "phone": "351-(337)223-3458"
  },
  {
    "id": 30,
    "first_name": "Pamela",
    "last_name": "Clark",
    "email": "pclarkt@narod.ru",
    "gender": "Female",
    "profile_picture": "http:\/\/dummyimage.com\/250x250.png\/cc0000\/ffffff",
    "phone": "49-(712)483-5553"
  },
  {
    "id": 31,
    "first_name": "Kimberly",
    "last_name": "Marshall",
    "email": "kmarshallu@japanpost.jp",
    "gender": "Female",
    "profile_picture": "http:\/\/dummyimage.com\/250x250.png\/cc0000\/ffffff",
    "phone": "1-(208)398-6667"
  },
  {
    "id": 32,
    "first_name": "Timothy",
    "last_name": "Richardson",
    "email": "trichardsonv@techcrunch.com",
    "gender": "Male",
    "profile_picture": "http:\/\/dummyimage.com\/250x250.jpg\/dddddd\/000000",
    "phone": "57-(934)832-3908"
  },
  {
    "id": 33,
    "first_name": "John",
    "last_name": "Wilson",
    "email": "jwilsonw@usa.gov",
    "gender": "Male",
    "profile_picture": "http:\/\/dummyimage.com\/250x250.jpg\/5fa2dd\/ffffff",
    "phone": "351-(296)408-3988"
  },
  {
    "id": 34,
    "first_name": "Russell",
    "last_name": "Stevens",
    "email": "rstevensx@mashable.com",
    "gender": "Male",
    "profile_picture": "http:\/\/dummyimage.com\/250x250.bmp\/cc0000\/ffffff",
    "phone": "44-(541)399-9729"
  },
  {
    "id": 35,
    "first_name": "Norma",
    "last_name": "Dixon",
    "email": "ndixony@cargocollective.com",
    "gender": "Female",
    "profile_picture": "http:\/\/dummyimage.com\/250x250.jpg\/cc0000\/ffffff",
    "phone": "84-(656)261-7558"
  },
  {
    "id": 36,
    "first_name": "Denise",
    "last_name": "Willis",
    "email": "dwillisz@marriott.com",
    "gender": "Female",
    "profile_picture": "http:\/\/dummyimage.com\/250x250.jpg\/dddddd\/000000",
    "phone": "49-(317)944-0342"
  },
  {
    "id": 37,
    "first_name": "Diana",
    "last_name": "Lawrence",
    "email": "dlawrence10@facebook.com",
    "gender": "Female",
    "profile_picture": "http:\/\/dummyimage.com\/250x250.bmp\/dddddd\/000000",
    "phone": "1-(918)260-4575"
  },
  {
    "id": 38,
    "first_name": "Karen",
    "last_name": "Marshall",
    "email": "kmarshall11@vk.com",
    "gender": "Female",
    "profile_picture": "http:\/\/dummyimage.com\/250x250.png\/ff4444\/ffffff",
    "phone": "84-(330)291-6681"
  },
  {
    "id": 39,
    "first_name": "Ernest",
    "last_name": "Morales",
    "email": "emorales12@domainmarket.com",
    "gender": "Male",
    "profile_picture": "http:\/\/dummyimage.com\/250x250.jpg\/cc0000\/ffffff",
    "phone": "62-(797)218-7776"
  },
  {
    "id": 40,
    "first_name": "Frances",
    "last_name": "Hernandez",
    "email": "fhernandez13@live.com",
    "gender": "Female",
    "profile_picture": "http:\/\/dummyimage.com\/250x250.jpg\/dddddd\/000000",
    "phone": "251-(942)517-4903"
  },
  {
    "id": 41,
    "first_name": "Lori",
    "last_name": "Kim",
    "email": "lkim14@ca.gov",
    "gender": "Female",
    "profile_picture": "http:\/\/dummyimage.com\/250x250.bmp\/cc0000\/ffffff",
    "phone": "62-(459)543-9946"
  },
  {
    "id": 42,
    "first_name": "Ann",
    "last_name": "Alexander",
    "email": "aalexander15@java.com",
    "gender": "Female",
    "profile_picture": "http:\/\/dummyimage.com\/250x250.bmp\/5fa2dd\/ffffff",
    "phone": "1-(353)961-7995"
  },
  {
    "id": 43,
    "first_name": "Emily",
    "last_name": "Ramos",
    "email": "eramos16@reverbnation.com",
    "gender": "Female",
    "profile_picture": "http:\/\/dummyimage.com\/250x250.jpg\/5fa2dd\/ffffff",
    "phone": "86-(576)853-8039"
  },
  {
    "id": 44,
    "first_name": "Elizabeth",
    "last_name": "Little",
    "email": "elittle17@livejournal.com",
    "gender": "Female",
    "profile_picture": "http:\/\/dummyimage.com\/250x250.jpg\/dddddd\/000000",
    "phone": "7-(908)739-5220"
  },
  {
    "id": 45,
    "first_name": "Andrew",
    "last_name": "Simpson",
    "email": "asimpson18@va.gov",
    "gender": "Male",
    "profile_picture": "http:\/\/dummyimage.com\/250x250.jpg\/5fa2dd\/ffffff",
    "phone": "86-(795)592-7937"
  },
  {
    "id": 46,
    "first_name": "Larry",
    "last_name": "Morrison",
    "email": "lmorrison19@home.pl",
    "gender": "Male",
    "profile_picture": "http:\/\/dummyimage.com\/250x250.jpg\/cc0000\/ffffff",
    "phone": "62-(248)492-0384"
  },
  {
    "id": 47,
    "first_name": "Arthur",
    "last_name": "Kennedy",
    "email": "akennedy1a@flavors.me",
    "gender": "Male",
    "profile_picture": "http:\/\/dummyimage.com\/250x250.png\/cc0000\/ffffff",
    "phone": "57-(309)880-0502"
  },
  {
    "id": 48,
    "first_name": "Elizabeth",
    "last_name": "Adams",
    "email": "eadams1b@intel.com",
    "gender": "Female",
    "profile_picture": "http:\/\/dummyimage.com\/250x250.jpg\/5fa2dd\/ffffff",
    "phone": "420-(430)663-7709"
  },
  {
    "id": 49,
    "first_name": "Carlos",
    "last_name": "Garrett",
    "email": "cgarrett1c@t.co",
    "gender": "Male",
    "profile_picture": "http:\/\/dummyimage.com\/250x250.png\/5fa2dd\/ffffff",
    "phone": "62-(386)415-3493"
  },
  {
    "id": 50,
    "first_name": "Sarah",
    "last_name": "Boyd",
    "email": "sboyd1d@netlog.com",
    "gender": "Female",
    "profile_picture": "http:\/\/dummyimage.com\/250x250.bmp\/ff4444\/ffffff",
    "phone": "1-(915)807-7485"
  },
  {
    "id": 51,
    "first_name": "Kelly",
    "last_name": "Fowler",
    "email": "kfowler1e@wordpress.org",
    "gender": "Female",
    "profile_picture": "http:\/\/dummyimage.com\/250x250.jpg\/5fa2dd\/ffffff",
    "phone": "86-(211)850-5092"
  },
  {
    "id": 52,
    "first_name": "Randy",
    "last_name": "Rodriguez",
    "email": "rrodriguez1f@topsy.com",
    "gender": "Male",
    "profile_picture": "http:\/\/dummyimage.com\/250x250.bmp\/ff4444\/ffffff",
    "phone": "66-(911)603-3216"
  },
  {
    "id": 53,
    "first_name": "Deborah",
    "last_name": "Mendoza",
    "email": "dmendoza1g@edublogs.org",
    "gender": "Female",
    "profile_picture": "http:\/\/dummyimage.com\/250x250.jpg\/5fa2dd\/ffffff",
    "phone": "995-(445)659-1986"
  },
  {
    "id": 54,
    "first_name": "Jerry",
    "last_name": "Lopez",
    "email": "jlopez1h@cdc.gov",
    "gender": "Male",
    "profile_picture": "http:\/\/dummyimage.com\/250x250.bmp\/ff4444\/ffffff",
    "phone": "260-(405)440-2157"
  },
  {
    "id": 55,
    "first_name": "Diana",
    "last_name": "Warren",
    "email": "dwarren1i@tiny.cc",
    "gender": "Female",
    "profile_picture": "http:\/\/dummyimage.com\/250x250.jpg\/ff4444\/ffffff",
    "phone": "1-(448)724-1206"
  },
  {
    "id": 56,
    "first_name": "Philip",
    "last_name": "Peters",
    "email": "ppeters1j@cbslocal.com",
    "gender": "Male",
    "profile_picture": "http:\/\/dummyimage.com\/250x250.png\/5fa2dd\/ffffff",
    "phone": "230-(252)697-5275"
  },
  {
    "id": 57,
    "first_name": "Michelle",
    "last_name": "Rogers",
    "email": "mrogers1k@ebay.co.uk",
    "gender": "Female",
    "profile_picture": "http:\/\/dummyimage.com\/250x250.bmp\/cc0000\/ffffff",
    "phone": "62-(235)194-6381"
  },
  {
    "id": 58,
    "first_name": "Phillip",
    "last_name": "Castillo",
    "email": "pcastillo1l@youtu.be",
    "gender": "Male",
    "profile_picture": "http:\/\/dummyimage.com\/250x250.jpg\/cc0000\/ffffff",
    "phone": "234-(933)166-4463"
  },
  {
    "id": 59,
    "first_name": "Catherine",
    "last_name": "Alexander",
    "email": "calexander1m@oakley.com",
    "gender": "Female",
    "profile_picture": "http:\/\/dummyimage.com\/250x250.png\/cc0000\/ffffff",
    "phone": "994-(908)391-6962"
  },
  {
    "id": 60,
    "first_name": "Virginia",
    "last_name": "Graham",
    "email": "vgraham1n@booking.com",
    "gender": "Female",
    "profile_picture": "http:\/\/dummyimage.com\/250x250.jpg\/dddddd\/000000",
    "phone": "92-(460)894-9557"
  },
  {
    "id": 61,
    "first_name": "Rose",
    "last_name": "Anderson",
    "email": "randerson1o@princeton.edu",
    "gender": "Female",
    "profile_picture": "http:\/\/dummyimage.com\/250x250.png\/5fa2dd\/ffffff",
    "phone": "62-(121)405-3835"
  },
  {
    "id": 62,
    "first_name": "Willie",
    "last_name": "Meyer",
    "email": "wmeyer1p@discovery.com",
    "gender": "Male",
    "profile_picture": "http:\/\/dummyimage.com\/250x250.jpg\/dddddd\/000000",
    "phone": "507-(437)259-0969"
  },
  {
    "id": 63,
    "first_name": "Carl",
    "last_name": "Ramirez",
    "email": "cramirez1q@paypal.com",
    "gender": "Male",
    "profile_picture": "http:\/\/dummyimage.com\/250x250.png\/cc0000\/ffffff",
    "phone": "237-(526)658-4204"
  },
  {
    "id": 64,
    "first_name": "Frances",
    "last_name": "Stanley",
    "email": "fstanley1r@cloudflare.com",
    "gender": "Female",
    "profile_picture": "http:\/\/dummyimage.com\/250x250.jpg\/dddddd\/000000",
    "phone": "7-(369)614-2776"
  },
  {
    "id": 65,
    "first_name": "Christopher",
    "last_name": "Murray",
    "email": "cmurray1s@drupal.org",
    "gender": "Male",
    "profile_picture": "http:\/\/dummyimage.com\/250x250.bmp\/5fa2dd\/ffffff",
    "phone": "66-(710)682-4932"
  },
  {
    "id": 66,
    "first_name": "Catherine",
    "last_name": "Willis",
    "email": "cwillis1t@gmpg.org",
    "gender": "Female",
    "profile_picture": "http:\/\/dummyimage.com\/250x250.jpg\/dddddd\/000000",
    "phone": "1-(757)786-0729"
  },
  {
    "id": 67,
    "first_name": "Jane",
    "last_name": "Ward",
    "email": "jward1u@rakuten.co.jp",
    "gender": "Female",
    "profile_picture": "http:\/\/dummyimage.com\/250x250.jpg\/ff4444\/ffffff",
    "phone": "86-(415)318-4602"
  },
  {
    "id": 68,
    "first_name": "Julia",
    "last_name": "Gibson",
    "email": "jgibson1v@upenn.edu",
    "gender": "Female",
    "profile_picture": "http:\/\/dummyimage.com\/250x250.jpg\/ff4444\/ffffff",
    "phone": "86-(631)298-5445"
  },
  {
    "id": 69,
    "first_name": "Beverly",
    "last_name": "Hansen",
    "email": "bhansen1w@mediafire.com",
    "gender": "Female",
    "profile_picture": "http:\/\/dummyimage.com\/250x250.jpg\/cc0000\/ffffff",
    "phone": "7-(384)541-9664"
  },
  {
    "id": 70,
    "first_name": "Sean",
    "last_name": "Murray",
    "email": "smurray1x@latimes.com",
    "gender": "Male",
    "profile_picture": "http:\/\/dummyimage.com\/250x250.jpg\/5fa2dd\/ffffff",
    "phone": "48-(713)138-0333"
  },
  {
    "id": 71,
    "first_name": "Tina",
    "last_name": "Mills",
    "email": "tmills1y@jugem.jp",
    "gender": "Female",
    "profile_picture": "http:\/\/dummyimage.com\/250x250.bmp\/cc0000\/ffffff",
    "phone": "7-(143)408-5999"
  },
  {
    "id": 72,
    "first_name": "Sharon",
    "last_name": "Phillips",
    "email": "sphillips1z@patch.com",
    "gender": "Female",
    "profile_picture": "http:\/\/dummyimage.com\/250x250.png\/dddddd\/000000",
    "phone": "212-(996)843-2814"
  },
  {
    "id": 73,
    "first_name": "Brenda",
    "last_name": "Green",
    "email": "bgreen20@sina.com.cn",
    "gender": "Female",
    "profile_picture": "http:\/\/dummyimage.com\/250x250.png\/cc0000\/ffffff",
    "phone": "49-(852)934-5171"
  },
  {
    "id": 74,
    "first_name": "Russell",
    "last_name": "Murphy",
    "email": "rmurphy21@weibo.com",
    "gender": "Male",
    "profile_picture": "http:\/\/dummyimage.com\/250x250.jpg\/ff4444\/ffffff",
    "phone": "62-(632)185-6677"
  },
  {
    "id": 75,
    "first_name": "Gregory",
    "last_name": "Murray",
    "email": "gmurray22@patch.com",
    "gender": "Male",
    "profile_picture": "http:\/\/dummyimage.com\/250x250.png\/ff4444\/ffffff",
    "phone": "62-(972)951-1838"
  },
  {
    "id": 76,
    "first_name": "Sandra",
    "last_name": "Nguyen",
    "email": "snguyen23@nsw.gov.au",
    "gender": "Female",
    "profile_picture": "http:\/\/dummyimage.com\/250x250.bmp\/cc0000\/ffffff",
    "phone": "351-(694)559-0385"
  },
  {
    "id": 77,
    "first_name": "John",
    "last_name": "Dunn",
    "email": "jdunn24@123-reg.co.uk",
    "gender": "Male",
    "profile_picture": "http:\/\/dummyimage.com\/250x250.bmp\/cc0000\/ffffff",
    "phone": "230-(129)226-0005"
  },
  {
    "id": 78,
    "first_name": "Chris",
    "last_name": "Scott",
    "email": "cscott25@digg.com",
    "gender": "Male",
    "profile_picture": "http:\/\/dummyimage.com\/250x250.jpg\/dddddd\/000000",
    "phone": "230-(789)291-0415"
  },
  {
    "id": 79,
    "first_name": "Janet",
    "last_name": "Fisher",
    "email": "jfisher26@comcast.net",
    "gender": "Female",
    "profile_picture": "http:\/\/dummyimage.com\/250x250.png\/dddddd\/000000",
    "phone": "55-(442)311-0650"
  },
  {
    "id": 80,
    "first_name": "Lisa",
    "last_name": "Adams",
    "email": "ladams27@sciencedirect.com",
    "gender": "Female",
    "profile_picture": "http:\/\/dummyimage.com\/250x250.png\/5fa2dd\/ffffff",
    "phone": "62-(372)331-1251"
  },
  {
    "id": 81,
    "first_name": "Angela",
    "last_name": "Lawson",
    "email": "alawson28@washington.edu",
    "gender": "Female",
    "profile_picture": "http:\/\/dummyimage.com\/250x250.jpg\/ff4444\/ffffff",
    "phone": "55-(450)499-8955"
  },
  {
    "id": 82,
    "first_name": "Nicholas",
    "last_name": "Ryan",
    "email": "nryan29@desdev.cn",
    "gender": "Male",
    "profile_picture": "http:\/\/dummyimage.com\/250x250.bmp\/dddddd\/000000",
    "phone": "970-(211)455-7158"
  },
  {
    "id": 83,
    "first_name": "Joan",
    "last_name": "Lewis",
    "email": "jlewis2a@e-recht24.de",
    "gender": "Female",
    "profile_picture": "http:\/\/dummyimage.com\/250x250.bmp\/ff4444\/ffffff",
    "phone": "84-(380)499-5358"
  },
  {
    "id": 84,
    "first_name": "Jonathan",
    "last_name": "George",
    "email": "jgeorge2b@cloudflare.com",
    "gender": "Male",
    "profile_picture": "http:\/\/dummyimage.com\/250x250.png\/5fa2dd\/ffffff",
    "phone": "46-(635)414-6541"
  },
  {
    "id": 85,
    "first_name": "Roger",
    "last_name": "Reid",
    "email": "rreid2c@berkeley.edu",
    "gender": "Male",
    "profile_picture": "http:\/\/dummyimage.com\/250x250.jpg\/ff4444\/ffffff",
    "phone": "62-(291)644-7716"
  },
  {
    "id": 86,
    "first_name": "Brenda",
    "last_name": "Mitchell",
    "email": "bmitchell2d@addthis.com",
    "gender": "Female",
    "profile_picture": "http:\/\/dummyimage.com\/250x250.png\/cc0000\/ffffff",
    "phone": "351-(307)236-8393"
  },
  {
    "id": 87,
    "first_name": "Donna",
    "last_name": "Ramos",
    "email": "dramos2e@delicious.com",
    "gender": "Female",
    "profile_picture": "http:\/\/dummyimage.com\/250x250.bmp\/dddddd\/000000",
    "phone": "7-(114)865-1751"
  },
  {
    "id": 88,
    "first_name": "Walter",
    "last_name": "Clark",
    "email": "wclark2f@businesswire.com",
    "gender": "Male",
    "profile_picture": "http:\/\/dummyimage.com\/250x250.bmp\/cc0000\/ffffff",
    "phone": "84-(417)487-3360"
  },
  {
    "id": 89,
    "first_name": "Mildred",
    "last_name": "Ellis",
    "email": "mellis2g@sitemeter.com",
    "gender": "Female",
    "profile_picture": "http:\/\/dummyimage.com\/250x250.bmp\/ff4444\/ffffff",
    "phone": "84-(199)659-7669"
  },
  {
    "id": 90,
    "first_name": "David",
    "last_name": "Ryan",
    "email": "dryan2h@sciencedirect.com",
    "gender": "Male",
    "profile_picture": "http:\/\/dummyimage.com\/250x250.png\/dddddd\/000000",
    "phone": "27-(699)716-5355"
  },
  {
    "id": 91,
    "first_name": "Robin",
    "last_name": "Morris",
    "email": "rmorris2i@jimdo.com",
    "gender": "Female",
    "profile_picture": "http:\/\/dummyimage.com\/250x250.jpg\/cc0000\/ffffff",
    "phone": "62-(490)462-5990"
  },
  {
    "id": 92,
    "first_name": "Teresa",
    "last_name": "Sullivan",
    "email": "tsullivan2j@photobucket.com",
    "gender": "Female",
    "profile_picture": "http:\/\/dummyimage.com\/250x250.bmp\/5fa2dd\/ffffff",
    "phone": "86-(759)822-4842"
  },
  {
    "id": 93,
    "first_name": "Wayne",
    "last_name": "Alexander",
    "email": "walexander2k@flickr.com",
    "gender": "Male",
    "profile_picture": "http:\/\/dummyimage.com\/250x250.png\/dddddd\/000000",
    "phone": "86-(556)108-4220"
  },
  {
    "id": 94,
    "first_name": "Henry",
    "last_name": "Long",
    "email": "hlong2l@ted.com",
    "gender": "Male",
    "profile_picture": "http:\/\/dummyimage.com\/250x250.jpg\/cc0000\/ffffff",
    "phone": "57-(433)858-2506"
  },
  {
    "id": 95,
    "first_name": "Virginia",
    "last_name": "King",
    "email": "vking2m@facebook.com",
    "gender": "Female",
    "profile_picture": "http:\/\/dummyimage.com\/250x250.bmp\/ff4444\/ffffff",
    "phone": "86-(359)246-6125"
  },
  {
    "id": 96,
    "first_name": "Phillip",
    "last_name": "Daniels",
    "email": "pdaniels2n@de.vu",
    "gender": "Male",
    "profile_picture": "http:\/\/dummyimage.com\/250x250.bmp\/cc0000\/ffffff",
    "phone": "62-(841)296-7389"
  },
  {
    "id": 97,
    "first_name": "Judy",
    "last_name": "Edwards",
    "email": "jedwards2o@forbes.com",
    "gender": "Female",
    "profile_picture": "http:\/\/dummyimage.com\/250x250.png\/ff4444\/ffffff",
    "phone": "62-(961)635-3191"
  },
  {
    "id": 98,
    "first_name": "Ruth",
    "last_name": "Shaw",
    "email": "rshaw2p@reverbnation.com",
    "gender": "Female",
    "profile_picture": "http:\/\/dummyimage.com\/250x250.bmp\/ff4444\/ffffff",
    "phone": "86-(656)866-1612"
  },
  {
    "id": 99,
    "first_name": "Donna",
    "last_name": "Rose",
    "email": "drose2q@fda.gov",
    "gender": "Female",
    "profile_picture": "http:\/\/dummyimage.com\/250x250.png\/cc0000\/ffffff",
    "phone": "86-(560)195-7930"
  },
  {
    "id": 100,
    "first_name": "Lawrence",
    "last_name": "Walker",
    "email": "lwalker2r@mashable.com",
    "gender": "Male",
    "profile_picture": "http:\/\/dummyimage.com\/250x250.bmp\/5fa2dd\/ffffff",
    "phone": "62-(924)663-2276"
  }
]